<?xml version="1.0" encoding="UTF-8" standalone="no" ?>
<COLLADA xmlns="http://www.collada.org/2005/11/COLLADASchema" version="1.4.1">
    <asset>
        <contributor>
            <authoring_tool>SketchUp 16.1.1449</authoring_tool>
        </contributor>
        <created>2016-05-10T13:11:28Z</created>
        <modified>2016-05-10T13:11:28Z</modified>
        <unit meter="0.0254" name="inch" />
        <up_axis>Z_UP</up_axis>
    </asset>
    <library_cameras>
        <camera id="ID1" name="skp_camera_Last_Saved_SketchUp_View">
            <optics>
                <technique_common>
                    <perspective>
                        <yfov>35</yfov>
                        <aspect_ratio>0</aspect_ratio>
                        <znear>1</znear>
                        <zfar>1000</zfar>
                    </perspective>
                </technique_common>
            </optics>
        </camera>
    </library_cameras>
    <library_visual_scenes>
        <visual_scene id="ID2">
            <node name="SketchUp">
                <instance_geometry url="#ID3">
                    <bind_material>
                        <technique_common>
                            <instance_material symbol="Material2" target="#ID4">
                                <bind_vertex_input semantic="UVSET0" input_semantic="TEXCOORD" input_set="0" />
                            </instance_material>
                        </technique_common>
                    </bind_material>
                </instance_geometry>
                <node name="skp_camera_Last_Saved_SketchUp_View">
                    <matrix>-0.6604797 -0.4093928 0.6294157 390.7132 0.7508439 -0.3601223 0.5536654 342.7373 0 0.8382777 0.5452435 236.3185 0 0 0 1</matrix>
                    <instance_camera url="#ID1" />
                </node>
            </node>
        </visual_scene>
    </library_visual_scenes>
    <library_geometries>
        <geometry id="ID3">
            <mesh>
                <source id="ID9">
                    <float_array id="ID13" count="72">196.8504 196.8504 0 0 0 0 0 196.8504 0 196.8504 0 0 196.8504 0 1.968504 0 0 0 196.8504 0 0 0 0 1.968504 0 196.8504 1.968504 0 0 0 0 0 1.968504 0 196.8504 0 0 196.8504 1.968504 196.8504 196.8504 0 0 196.8504 0 196.8504 196.8504 1.968504 196.8504 196.8504 0 196.8504 0 1.968504 196.8504 0 0 196.8504 196.8504 1.968504 196.8504 0 1.968504 0 196.8504 1.968504 0 0 1.968504 196.8504 196.8504 1.968504</float_array>
                    <technique_common>
                        <accessor count="24" source="#ID13" stride="3">
                            <param name="X" type="float" />
                            <param name="Y" type="float" />
                            <param name="Z" type="float" />
                        </accessor>
                    </technique_common>
                </source>
                <source id="ID10">
                    <float_array id="ID14" count="72">0 0 -1 0 0 -1 0 0 -1 0 0 -1 -0 -1 -0 -0 -1 -0 -0 -1 -0 -0 -1 -0 -1 0 0 -1 0 0 -1 0 0 -1 0 0 -0 1 0 -0 1 0 -0 1 0 -0 1 0 1 0 0 1 0 0 1 0 0 1 0 0 0 0 1 0 0 1 0 0 1 0 0 1</float_array>
                    <technique_common>
                        <accessor count="24" source="#ID14" stride="3">
                            <param name="X" type="float" />
                            <param name="Y" type="float" />
                            <param name="Z" type="float" />
                        </accessor>
                    </technique_common>
                </source>
                <source id="ID12">
                    <float_array id="ID15" count="18">-16.4042 16.4042 0 0 0 16.4042 -16.4042 0 16.4042 0.164042 16.4042 0 0 0.164042 -16.4042 0.164042 16.4042 16.4042</float_array>
                    <technique_common>
                        <accessor count="9" source="#ID15" stride="2">
                            <param name="S" type="float" />
                            <param name="T" type="float" />
                        </accessor>
                    </technique_common>
                </source>
                <vertices id="ID11">
                    <input semantic="POSITION" source="#ID9" />
                    <input semantic="NORMAL" source="#ID10" />
                </vertices>
                <triangles count="12" material="Material2">
                    <input offset="0" semantic="VERTEX" source="#ID11" />
                    <input offset="1" semantic="TEXCOORD" source="#ID12" />
                    <p>0 0 1 1 2 2 1 1 0 0 3 3 4 4 5 1 6 5 5 1 4 4 7 6 8 7 9 1 10 6 9 1 8 7 11 3 12 6 13 3 14 1 13 3 12 6 15 7 16 5 17 6 18 1 17 6 16 5 19 4 20 5 21 2 22 1 21 2 20 5 23 8</p>
                </triangles>
            </mesh>
        </geometry>
    </library_geometries>
    <library_materials>
        <material id="ID4" name="Tile_Checker_BW">
            <instance_effect url="#ID5" />
        </material>
    </library_materials>
    <library_effects>
        <effect id="ID5">
            <profile_COMMON>
                <newparam sid="ID7">
                    <surface type="2D">
                        <init_from>ID6</init_from>
                    </surface>
                </newparam>
                <newparam sid="ID8">
                    <sampler2D>
                        <source>ID7</source>
                    </sampler2D>
                </newparam>
                <technique sid="COMMON">
                    <lambert>
                        <diffuse>
                            <texture texture="ID8" texcoord="UVSET0" />
                        </diffuse>
                    </lambert>
                </technique>
            </profile_COMMON>
        </effect>
    </library_effects>
    <library_images>
        <image id="ID6">
            <init_from>sol/Tile_Checker_BW.jpg</init_from>
        </image>
    </library_images>
    <scene>
        <instance_visual_scene url="#ID2" />
    </scene>
</COLLADA>
